<?xml version='1.0' encoding='UTF-8' standalone='no'?>
<svg 
    xmlns='http://www.w3.org/2000/svg'
    width='730'
    height='574'
    shape-rendering='geometricPrecision'
    version='1.0'>
  <defs>
    <style type='text/css'>
      @font-face {
        font-family: Custom;
        src: url('Lato,regular');
      }
    </style>
    <filter id='f2' x='0' y='0' width='200%' height='200%'>
      <feOffset result='offOut' in='SourceGraphic' dx='5' dy='5' />
      <feGaussianBlur result='blurOut' in='offOut' stdDeviation='3' />
      <feBlend in='SourceGraphic' in2='blurOut' mode='normal' />
    </filter>
  </defs>
  <g stroke-width='1' stroke-linecap='square' stroke-linejoin='round'>
    <rect x='0' y='0' width='730' height='574' style='fill: #ffffff'/>
    <path stroke='#000000' stroke-width='1,000000' stroke-linecap='round' stroke-linejoin='round' fill='none' d='M245.0 413.0 L370.0 413.0 Q375.0 413.0 375.0 406.0 L375.0 56.0 L375.0 56.0 Q375.0 49.0 370.0 49.0 L120.0 49.0 L120.0 49.0 Q115.0 49.0 115.0 56.0 L115.0 406.0 L115.0 406.0 Q115.0 413.0 120.0 413.0 L225.0 413.0 L225.0 413.0 ' />
    <path stroke='#000000' stroke-width='1,000000' stroke-linecap='round' stroke-linejoin='round' fill='none' d='M245.0 385.0 L365.0 385.0 L365.0 77.0 L125.0 77.0 L125.0 385.0 L225.0 385.0 ' />
    <path stroke='#000000' stroke-width='1,000000' stroke-linecap='round' stroke-linejoin='round' fill='none' d='M375.0 497.0 L375.0 462.0 Q375.0 455.0 370.0 455.0 L120.0 455.0 L120.0 455.0 Q115.0 455.0 115.0 462.0 L115.0 497.0 L115.0 497.0 ' />
    <path stroke='none' stroke-width='1,000000' stroke-linecap='round' stroke-linejoin='round' fill='#000000' d='M235.0 84.0 L230.0 98.0 L240.0 98.0 z' />
    <path stroke='none' stroke-width='1,000000' stroke-linecap='round' stroke-linejoin='round' fill='#000000' d='M140.0 224.0 L130.0 231.0 L140.0 238.0 z' />
    <path stroke='none' stroke-width='1,000000' stroke-linecap='round' stroke-linejoin='round' fill='#000000' d='M350.0 224.0 L360.0 231.0 L350.0 238.0 z' />
    <path stroke='none' stroke-width='1,000000' stroke-linecap='round' stroke-linejoin='round' fill='#000000' d='M230.0 420.0 L235.0 434.0 L240.0 420.0 z' />
    <path stroke='none' stroke-width='1,000000' stroke-linecap='round' stroke-linejoin='round' fill='#000000' d='M410.0 420.0 L400.0 427.0 L410.0 434.0 z' />
    <path stroke='none' stroke-width='1,000000' stroke-linecap='round' stroke-linejoin='round' fill='#000000' d='M440.0 504.0 L430.0 511.0 L440.0 518.0 z' />
    <path stroke='#000000' stroke-width='1,000000' stroke-linecap='round' stroke-linejoin='round' fill='none' d='M235.0 231.0 L135.0 231.0 ' />
    <path stroke='#000000' stroke-width='1,000000' stroke-linecap='round' stroke-linejoin='round' fill='none' d='M235.0 231.0 L355.0 231.0 ' />
    <path stroke='#000000' stroke-width='1,000000' stroke-linecap='round' stroke-linejoin='round' fill='none' d='M235.0 427.0 L235.0 231.0 ' />
    <path stroke='#000000' stroke-width='1,000000' stroke-linecap='round' stroke-linejoin='round' fill='none' d='M105.0 35.0 L105.0 497.0 ' />
    <path stroke='#000000' stroke-width='1,000000' stroke-linecap='round' stroke-linejoin='round' fill='none' d='M415.0 511.0 L65.0 511.0 ' />
    <path stroke='#000000' stroke-width='1,000000' stroke-linecap='round' stroke-linejoin='round' fill='none' d='M375.0 525.0 L375.0 539.0 ' />
    <path stroke='#000000' stroke-width='1,000000' stroke-linecap='round' stroke-linejoin='round' fill='none' d='M385.0 539.0 L385.0 525.0 ' />
    <path stroke='#000000' stroke-width='1,000000' stroke-linecap='round' stroke-linejoin='round' fill='none' d='M385.0 497.0 L385.0 35.0 ' />
    <path stroke='#000000' stroke-width='1,000000' stroke-linecap='round' stroke-linejoin='round' fill='none' d='M425.0 427.0 L405.0 427.0 ' />
    <path stroke='#000000' stroke-width='1,000000' stroke-linecap='round' stroke-linejoin='round' fill='none' d='M115.0 539.0 L115.0 525.0 ' />
    <path stroke='#000000' stroke-width='1,000000' stroke-linecap='round' stroke-linejoin='round' fill='none' d='M235.0 91.0 L235.0 203.0 ' />
    <path stroke='#000000' stroke-width='1,000000' stroke-linecap='round' stroke-linejoin='round' fill='none' d='M105.0 539.0 L105.0 525.0 ' />
    <path stroke='#000000' stroke-width='1,000000' stroke-linecap='round' stroke-linejoin='round' fill='none' d='M435.0 511.0 L455.0 511.0 ' />
    <text x='513' y='516' font-family='Custom' font-size='13' stroke='none' fill='#000000' ><![CDATA[but here it does instead]]></text>
    <text x='203' y='222' font-family='Custom' font-size='13' stroke='none' fill='#000000' ><![CDATA[Printable area]]></text>
    <text x='24' y='516' font-family='Custom' font-size='13' stroke='none' fill='#000000' ><![CDATA[cut]]></text>
    <text x='472' y='432' font-family='Custom' font-size='13' stroke='none' fill='#000000' ><![CDATA[here it should cut]]></text>
    <text x='207' y='474' font-family='Custom' font-size='13' stroke='none' fill='#000000' ><![CDATA[next label]]></text>
  </g>
</svg>